{
  "project_info": {
    "project_number": "185425128064",
    "firebase_url": "https://weatherskrt.firebaseio.com",
    "project_id": "weatherskrt",
    "storage_bucket": "weatherskrt.appspot.com"
  },
  "client": [
    {
      "client_info": {
        "mobilesdk_app_id": "1:185425128064:android:2a5387a4c1588166",
        "android_client_info": {
          "package_name": "com.example.android.searchweather"
        }
      },
      "oauth_client": [
        {
          "client_id": "185425128064-i48n0dn8hk1das5hi6pfe9mj4da4pcar.apps.googleusercontent.com",
          "client_type": 1,
          "android_info": {
            "package_name": "com.example.android.searchweather",
            "certificate_hash": "3bbf3829f524c545b6091a895eec20fe2ce8d46a"
          }
        },
        {
          "client_id": "185425128064-c34n9su3j5t0efvek5vbdjo3sq9vmjce.apps.googleusercontent.com",
          "client_type": 3
        }
      ],
      "api_key": [
        {
          "current_key": "AIzaSyA8K_YQJE7f5DfEhdlGjqdxtlFDagM_IKs"
        }
      ],
      "services": {
        "analytics_service": {
          "status": 1
        },
        "appinvite_service": {
          "status": 2,
          "other_platform_oauth_client": [
            {
              "client_id": "185425128064-c34n9su3j5t0efvek5vbdjo3sq9vmjce.apps.googleusercontent.com",
              "client_type": 3
            }
          ]
        },
        "ads_service": {
          "status": 2
        }
      }
    }
  ],
  "configuration_version": "1"
}